<?xml version="1.0" encoding="UTF-8" standalone="no"?>
<svg
   xmlns:dc="http://purl.org/dc/elements/1.1/"
   xmlns:cc="http://creativecommons.org/ns#"
   xmlns:rdf="http://www.w3.org/1999/02/22-rdf-syntax-ns#"
   xmlns:svg="http://www.w3.org/2000/svg"
   xmlns="http://www.w3.org/2000/svg"
   xmlns:sodipodi="http://sodipodi.sourceforge.net/DTD/sodipodi-0.dtd"
   xmlns:inkscape="http://www.inkscape.org/namespaces/inkscape"
   viewBox="-80 -80 220 240"
   version="1.1">
  <sodipodi:namedview showgrid="true">
    <inkscape:grid
       type="xygrid"
       empspacing="4"
       spacingx="5"
       spacingy="5" />
  </sodipodi:namedview>
  <rect stroke="black" stroke-width="4" fill="#ffffb4" fill-opacity="0.78431374" x="0" y="-10" width="60" height="100"/>
    <text id="label" fill="#000000" font-size="24" text-anchor="middle" x="30" y="-20">Label</text>
  <g>
    <circle fill="#0000b2" id="pin:A" cx="0" cy="0" r="3"/>
    <text fill="#808080" font-size="18" x="4" y="6">A</text>
  </g>
  <g>
    <circle fill="#0000b2" id="pin:B" cx="0" cy="20" r="3"/>
    <text fill="#808080" font-size="18" x="4" y="26">B</text>
  </g>
  <g>
    <circle fill="#0000b2" id="pin:Ci" cx="0" cy="40" r="3"/>
    <text fill="#808080" font-size="18" x="4" y="46">Ci</text>
  </g>
  <g>
    <circle fill="#b20000" id="pin:S" cx="60" cy="0" r="3"/>
    <text fill="#808080" font-size="18" text-anchor="end" x="56" y="6">S</text>
  </g>
  <g>
    <circle fill="#b20000" id="pin:Co" cx="60" cy="20" r="3"/>
    <text fill="#808080" font-size="18" text-anchor="end" x="56" y="26">Co</text>
  </g>
  <g>
    <circle fill="#b20000" id="pin:A⊕B" cx="60" cy="40" r="3"/>
    <text fill="#808080" font-size="18" text-anchor="end" x="56" y="46">A⊕B</text>
  </g>
  <g>
    <circle fill="#b20000" id="pin:A∧B" cx="60" cy="60" r="3"/>
    <text fill="#808080" font-size="18" text-anchor="end" x="56" y="66">A∧B</text>
  </g>
  <g>
    <circle fill="#b20000" id="pin:A∨B" cx="60" cy="80" r="3"/>
    <text fill="#808080" font-size="18" text-anchor="end" x="56" y="86">A∨B</text>
  </g>
</svg>
